aLBI - A Simple R Package for Estimating Length-Based Indicators and Fish Stock Assessment from Length Frequency Data
…
Example

# Load the stock status criteria data
cpdata_path <- system.file("exdata", "cpdata.xlsx", package = "aLBI")
print(cpdata_path) #check if the path exist
#> [1] "C:/Users/User/AppData/Local/Temp/Rtmpc3U2Yf/temp_libpath4edc451a4ef2/aLBI/exdata/cpdata.xlsx"

if (cpdata_path == "") {
  stop("The required file cpdata.xlsx is missing. Please check the inst/extdata directory.")
}
# loading the cope and punt table
cpdata <- readxl::read_excel(cpdata_path)
print(cpdata)
#> # A tibble: 21 × 11
#>       Tx     A     B     C     D     E     F     G     H     I     J
#>    <dbl> <dbl> <dbl> <dbl> <dbl> <dbl> <dbl> <dbl> <dbl> <dbl> <dbl>
#>  1   100     0     0     0     0     0     0     0     0   100   100
#>  2    95     0     0     0     0    22     0    11     0   100    93
#>  3    90     0     0     0     0   100    44    83    22   100    74
#>  4    85     0     0     0     0   100   100   100    67   100    63
#>  5    80     0     0     0     0   100   100   100   100    89    52
#>  6    75     0     0     0     0   100   100   100   100    74    37
#>  7    70     0     0     0     0   100   100   100   100    48    30
#>  8    65     0     0     0     0   100   100   100   100    33    22
#>  9    60     0     0     0     0   100   100   100   100    22    15
#> 10    55     0     0     0     0   100   100   100   100    11     7
#> # ℹ 11 more rows
…
