aLBI - A Simple R Package for Estimating Length-Based Indicators and Fish Stock Assessment from Length Frequency Data
…
library(readxl)
# Load your length data from the system file
lenfreq_path <- system.file("exdata", "ExData.xlsx", package = "aLBI")
print(lenfreq_path)  # Check the generated path
#> [1] "C:/Users/User/AppData/Local/Temp/Rtmpau2OPG/Rinst52c0638a9b3/aLBI/exdata/ExData.xlsx"

if (lenfreq_path == "") {
  stop("The required file ExData.xlsx is missing. Please check the inst/extdata directory.")
}

# load the lenght frequency data
lenght_data <- readxl::read_excel(lenfreq_path)
print(lenght_data)  # check the 
#> # A tibble: 1,177 × 1
#>    Length
#>     <dbl>
#>  1   75  
#>  2   66.7
#>  3   66  
#>  4   64  
#>  5   63.3
#>  6   63.2
#>  7   62.3
#>  8   62.2
#>  9   62  
#> 10   61.3
#> # ℹ 1,167 more rows
…
# Running the FrequencyTable function
freqTable <- FrequencyTable(data = lenght_data, bin_width = NULL, Lmax = NULL, output_file = "FrequencyTable_Output.xlsx")
#> Lmax not provided. Using maximum observed length: 75
#> Calculated bin width using Wang's formula: 3
#> Warning: There was 1 warning in `dplyr::mutate()`.
#> ℹ In argument: `Length = as.numeric(sub(".*,(\\d+\\.?\\d*)[\\)\\]]?$", "\\1",
#>   as.character(Length_Range)))`.
#> Caused by warning:
#> ! NAs introduced by coercion
#> Warning in FrequencyTable(data = lenght_data, bin_width = NULL, Lmax = NULL, :
#> Some Length values could not be extracted. Attempting fallback extraction.

# Viewing the results
freqTable$lfqTable  # Display the frequency table
#> # A tibble: 21 × 2
#>    Length_Range Frequency
#>    <fct>            <int>
#>  1 [9,12)              15
#>  2 [12,15)             63
#>  3 [15,18)            135
#>  4 [18,21)            137
#>  5 [21,24)            135
#>  6 [24,27)            156
#>  7 [27,30)            143
#>  8 [30,33)             80
#>  9 [33,36)             88
#> 10 [36,39)             67
#> # ℹ 11 more rows
freqTable$lfreq     # Display the summarized frequencies with upper length ranges
#> # A tibble: 21 × 2
#>    Length Frequency
#>     <dbl>     <int>
#>  1     12        15
#>  2     15        63
#>  3     18       135
#>  4     21       137
#>  5     24       135
#>  6     27       156
#>  7     30       143
#>  8     33        80
#>  9     36        88
#> 10     39        67
#> # ℹ 11 more rows
…
library(readxl)
# Load your length data from the system file
lenfreq_path <- system.file("exdata", "lenfreqM.xlsx", package = "aLBI")
print(lenfreq_path)  # Check the generated path
#> [1] "C:/Users/User/AppData/Local/Temp/Rtmpau2OPG/Rinst52c0638a9b3/aLBI/exdata/lenfreqM.xlsx"

if (lenfreq_path == "") {
  stop("The required file lenfreqM.xlsx is missing. Please check the inst/extdata directory.")
}

# load the length frequency data of multiple months
lenght_dataM <- readxl::read_excel(lenfreq_path)
print(lenght_dataM)  # check the 
#> # A tibble: 1,500 × 2
#>    Months Length
#>    <chr>   <dbl>
#>  1 Jan       9.3
#>  2 Jan      11.5
#>  3 Jan       8.7
#>  4 Jan       7.4
#>  5 Jan       8.6
#>  6 Jan       9  
#>  7 Jan       9.2
#>  8 Jan       8  
#>  9 Jan       6.6
#> 10 Jan       9.5
#> # ℹ 1,490 more rows
…
Example with CPdata

# Load the stock status criteria data
cpdata_path <- system.file("exdata", "cpdata.xlsx", package = "aLBI")
print(cpdata_path) #check if the path exist
#> [1] "C:/Users/User/AppData/Local/Temp/Rtmpau2OPG/Rinst52c0638a9b3/aLBI/exdata/cpdata.xlsx"

if (cpdata_path == "") {
  stop("The required file cpdata.xlsx is missing. Please check the inst/extdata directory.")
}
# loading the cope and punt table
cpdata <- readxl::read_excel(cpdata_path)
print(cpdata)
#> # A tibble: 21 × 11
#>       Tx     A     B     C     D     E     F     G     H     I     J
#>    <dbl> <dbl> <dbl> <dbl> <dbl> <dbl> <dbl> <dbl> <dbl> <dbl> <dbl>
#>  1   100     0     0     0     0     0     0     0     0   100   100
#>  2    95     0     0     0     0    22     0    11     0   100    93
#>  3    90     0     0     0     0   100    44    83    22   100    74
#>  4    85     0     0     0     0   100   100   100    67   100    63
#>  5    80     0     0     0     0   100   100   100   100    89    52
#>  6    75     0     0     0     0   100   100   100   100    74    37
#>  7    70     0     0     0     0   100   100   100   100    48    30
#>  8    65     0     0     0     0   100   100   100   100    33    22
#>  9    60     0     0     0     0   100   100   100   100    22    15
#> 10    55     0     0     0     0   100   100   100   100    11     7
#> # ℹ 11 more rows
…
Example with existing LWdata

# Load the stock status criteria data
LWdata_path <- system.file("exdata", "LWdata.xlsx", package = "aLBI")
print(LWdata_path) #check if the path exist
#> [1] "C:/Users/User/AppData/Local/Temp/Rtmpau2OPG/Rinst52c0638a9b3/aLBI/exdata/LWdata.xlsx"

if (LWdata_path == "") {
  stop("The required file LWdata.xlsx is missing. Please check the inst/extdata directory.")
}
# loading the cope and punt table
LWdata <- readxl::read_excel(LWdata_path)
print(LWdata)
#> # A tibble: 554 × 2
#>    Length Weight
#>     <dbl>  <dbl>
#>  1   58.7   1025
#>  2   58.6   1013
#>  3   54.6   1011
#>  4   54.3    941
#>  5   54.2    946
#>  6   53     1120
#>  7   51.7    897
#>  8   51     1031
#>  9   50.5    882
#> 10   50.4    876
#> # ℹ 544 more rows
…
